[
  {
    "model": "peoples.Civility",
    "pk": 1,
    "fields": {
      "label": "Monsieur",
      "label_short": "M.",
      "created_by_id": 1,
      "created_at": "2021-02-13T18:04:45.523679+01:00"
    }
  },
  {
    "model": "peoples.Civility",
    "pk": 2,
    "fields": {
      "label": "Madame",
      "label_short": "Mme",
      "created_by_id": 1,
      "created_at": "2021-02-13T18:04:45.523679+01:00"
    }
  },
  {
    "model": "peoples.Civility",
    "pk": 3,
    "fields": {
      "label": "Professeur",
      "label_short": "Pr",
      "created_by_id": 1,
      "created_at": "2021-02-13T18:04:45.523679+01:00"
    }
  },
  {
    "model": "peoples.Civility",
    "pk": 4,
    "fields": {
      "label": "Docteur",
      "label_short": "Dr",
      "created_by_id": 1,
      "created_at": "2021-02-13T18:04:45.523679+01:00"
    }
  },
  {
    "model": "peoples.Civility",
    "pk": 5,
    "fields": {
      "label": "Maître",
      "label_short": "Me",
      "created_by_id": 1,
      "created_at": "2021-02-13T18:04:45.523679+01:00"
    }
  }
]