[
  {
    "model": "peoples.Job",
    "pk": 1,
    "fields": {
      "label": "Admin sys",
      "created_by_id": 1,
      "created_at": "2021-02-13T18:04:45.523679+01:00"
    }
  },
  {
    "model": "peoples.Job",
    "pk": 2,
    "fields": {
      "label": "Chef de projet",
      "created_by_id": 1,
      "created_at": "2021-02-13T18:04:45.523679+01:00"
    }
  },
  {
    "model": "peoples.Job",
    "pk": 3,
    "fields": {
      "label": "Développeur",
      "created_by_id": 1,
      "created_at": "2021-02-13T18:04:45.523679+01:00"
    }
  },
  {
    "model": "peoples.Job",
    "pk": 4,
    "fields": {
      "label": "Directeur technique",
      "created_by_id": 1,
      "created_at": "2021-02-13T18:04:45.523679+01:00"
    }
  },
  {
    "model": "peoples.Job",
    "pk": 5,
    "fields": {
      "label": "Resposnable sécutité",
      "created_by_id": 1,
      "created_at": "2021-02-13T18:04:45.523679+01:00"
    }
  }
]